xof 0303txt 0032

Frame Root {
  FrameTransformMatrix {
     1.000000, 0.000000, 0.000000, 0.000000,
     0.000000,-0.000000, 1.000000, 0.000000,
     0.000000, 1.000000, 0.000000, 0.000000,
     0.000000, 0.000000, 0.000000, 1.000000;;
  }
  Frame Cylinder {
    FrameTransformMatrix {
       0.247549, 0.000000, 0.000000, 0.000000,
       0.000000, 0.247549, 0.000000, 0.000000,
       0.000000, 0.000000, 0.384504, 0.000000,
       0.000000, 0.000000, 0.000000, 1.000000;;
    }
    Mesh { // Cylinder mesh
      549;
       0.000000; 1.000000;-1.000000;,
       0.000000; 0.000000; 1.563482;,
       0.195090; 0.980785;-1.000000;,
       0.382683; 0.923880;-1.000000;,
       0.555570; 0.831470;-1.000000;,
       0.707107; 0.707107;-1.000000;,
       0.831470; 0.555570;-1.000000;,
       0.923880; 0.382683;-1.000000;,
       0.980785; 0.195090;-1.000000;,
       1.000000; 0.000000;-1.000000;,
       0.980785;-0.195090;-1.000000;,
       0.923880;-0.382683;-1.000000;,
       0.831470;-0.555570;-1.000000;,
       0.707107;-0.707107;-1.000000;,
       0.555570;-0.831470;-1.000000;,
       0.382683;-0.923880;-1.000000;,
       0.195090;-0.980785;-1.000000;,
      -0.000000;-1.000000;-1.000000;,
      -0.195091;-0.980785;-1.000000;,
      -0.382684;-0.923879;-1.000000;,
      -0.555571;-0.831469;-1.000000;,
      -0.707107;-0.707106;-1.000000;,
      -0.831470;-0.555570;-1.000000;,
      -0.923880;-0.382683;-1.000000;,
      -0.980785;-0.195089;-1.000000;,
      -1.000000; 0.000001;-1.000000;,
      -0.980785; 0.195091;-1.000000;,
      -0.923879; 0.382684;-1.000000;,
      -0.831469; 0.555571;-1.000000;,
      -0.707106; 0.707108;-1.000000;,
      -0.555569; 0.831470;-1.000000;,
      -0.382682; 0.923880;-1.000000;,
      -0.195089; 0.980786;-1.000000;,
      -0.382682; 0.923880; 0.485505;,
      -0.555569; 0.831470; 0.485505;,
      -0.707106; 0.707108; 0.485505;,
      -0.831469; 0.555571; 0.485505;,
      -0.923879; 0.382684; 0.485505;,
      -0.980785; 0.195091; 0.485505;,
      -1.000000; 0.000001; 0.485505;,
      -0.980785;-0.195089; 0.485505;,
      -0.923880;-0.382683; 0.485505;,
      -0.831470;-0.555570; 0.485505;,
      -0.707107;-0.707106; 0.485505;,
      -0.555571;-0.831469; 0.485505;,
      -0.382684;-0.923879; 0.485505;,
      -0.195091;-0.980785; 0.485505;,
      -0.000000;-1.000000; 0.485505;,
       0.195090;-0.980785; 0.485505;,
       0.382683;-0.923880; 0.485505;,
       0.555570;-0.831470; 0.485505;,
       0.707107;-0.707107; 0.485505;,
       0.831470;-0.555570; 0.485505;,
       0.923880;-0.382683; 0.485505;,
       0.980785;-0.195090; 0.485505;,
       1.000000; 0.000000; 0.485505;,
       0.980785; 0.195090; 0.485505;,
       0.923880; 0.382683; 0.485505;,
       0.831470; 0.555570; 0.485505;,
       0.707107; 0.707107; 0.485505;,
       0.555570; 0.831470; 0.485505;,
       0.382683; 0.923880; 0.485505;,
       0.195090; 0.980785; 0.485505;,
       0.000000; 1.000000; 0.485505;,
      -0.195089; 0.980786; 0.485505;,
      -0.000000; 0.455088; 1.454034;,
       0.000000; 1.000000; 0.587745;,
      -0.000000; 0.539954; 1.400022;,
      -0.000000; 0.622794; 1.333414;,
      -0.000000; 0.701570; 1.255852;,
      -0.000000; 0.774341; 1.169244;,
      -0.000000; 0.839315; 1.075723;,
      -0.000000; 0.894892; 0.977593;,
       0.000000; 0.939705; 0.877269;,
       0.000000; 0.972649; 0.777222;,
       0.000000; 0.992914; 0.679915;,
       0.195090; 0.980785; 0.587745;,
       0.088783; 0.446343; 1.454034;,
       0.193708; 0.973835; 0.679915;,
       0.189754; 0.953960; 0.777222;,
       0.183327; 0.921649; 0.877269;,
       0.174585; 0.877697; 0.977593;,
       0.163742; 0.823187; 1.075723;,
       0.151066; 0.759462; 1.169244;,
       0.136869; 0.688089; 1.255852;,
       0.121501; 0.610827; 1.333414;,
       0.105340; 0.529578; 1.400022;,
       0.382683; 0.923880; 0.587745;,
       0.174155; 0.420446; 1.454034;,
       0.379972; 0.917333; 0.679915;,
       0.372217; 0.898611; 0.777222;,
       0.359610; 0.868174; 0.877269;,
       0.342460; 0.826773; 0.977593;,
       0.321192; 0.775426; 1.075723;,
       0.296327; 0.715397; 1.169244;,
       0.268479; 0.648166; 1.255852;,
       0.238333; 0.575387; 1.333414;,
       0.206631; 0.498852; 1.400022;,
       0.555570; 0.831470; 0.587745;,
       0.252833; 0.378392; 1.454034;,
       0.551633; 0.825578; 0.679915;,
       0.540375; 0.808728; 0.777222;,
       0.522072; 0.781336; 0.877269;,
       0.497176; 0.744076; 0.977593;,
       0.466298; 0.697864; 1.075723;,
       0.430201; 0.643840; 1.169244;,
       0.389771; 0.583334; 1.255852;,
       0.346006; 0.517834; 1.333414;,
       0.299982; 0.448955; 1.400022;,
       0.707107; 0.707107; 0.587745;,
       0.321795; 0.321796; 1.454034;,
       0.702096; 0.702096; 0.679915;,
       0.687767; 0.687767; 0.777222;,
       0.664472; 0.664472; 0.877269;,
       0.632784; 0.632785; 0.977593;,
       0.593485; 0.593485; 1.075723;,
       0.547541; 0.547541; 1.169244;,
       0.496084; 0.496085; 1.255852;,
       0.440382; 0.440382; 1.333414;,
       0.381805; 0.381805; 1.400022;,
       0.831470; 0.555570; 0.587745;,
       0.378391; 0.252833; 1.454034;,
       0.825578; 0.551633; 0.679915;,
       0.808728; 0.540375; 0.777222;,
       0.781336; 0.522072; 0.877269;,
       0.744076; 0.497176; 0.977593;,
       0.697865; 0.466298; 1.075723;,
       0.643841; 0.430201; 1.169244;,
       0.583334; 0.389771; 1.255852;,
       0.517834; 0.346006; 1.333414;,
       0.448955; 0.299982; 1.400022;,
       0.923880; 0.382683; 0.587745;,
       0.420446; 0.174154; 1.454034;,
       0.917333; 0.379972; 0.679915;,
       0.898611; 0.372217; 0.777222;,
       0.868174; 0.359609; 0.877269;,
       0.826773; 0.342460; 0.977593;,
       0.775426; 0.321192; 1.075723;,
       0.715397; 0.296327; 1.169244;,
       0.648166; 0.268479; 1.255852;,
       0.575387; 0.238333; 1.333414;,
       0.498852; 0.206631; 1.400022;,
       0.980785; 0.195090; 0.587745;,
       0.446343; 0.088783; 1.454034;,
       0.973835; 0.193708; 0.679915;,
       0.953960; 0.189755; 0.777222;,
       0.921649; 0.183327; 0.877269;,
       0.877697; 0.174585; 0.977593;,
       0.823187; 0.163742; 1.075723;,
       0.759462; 0.151066; 1.169244;,
       0.688089; 0.136869; 1.255852;,
       0.610827; 0.121501; 1.333414;,
       0.529578; 0.105340; 1.400022;,
       1.000000; 0.000000; 0.587745;,
       0.455088;-0.000000; 1.454034;,
       0.992914; 0.000000; 0.679915;,
       0.972649; 0.000000; 0.777222;,
       0.939705; 0.000000; 0.877269;,
       0.894892; 0.000000; 0.977593;,
       0.839315; 0.000000; 1.075723;,
       0.774340;-0.000000; 1.169244;,
       0.701570;-0.000000; 1.255852;,
       0.622794;-0.000000; 1.333414;,
       0.539953;-0.000000; 1.400022;,
       0.980785;-0.195090; 0.587745;,
       0.446343;-0.088783; 1.454034;,
       0.973835;-0.193708; 0.679915;,
       0.953960;-0.189754; 0.777222;,
       0.921649;-0.183327; 0.877269;,
       0.877697;-0.174585; 0.977593;,
       0.823187;-0.163742; 1.075723;,
       0.759462;-0.151066; 1.169244;,
       0.688089;-0.136869; 1.255852;,
       0.610827;-0.121501; 1.333414;,
       0.529579;-0.105339; 1.400022;,
       0.923880;-0.382683; 0.587745;,
       0.420446;-0.174155; 1.454034;,
       0.917333;-0.379972; 0.679915;,
       0.898611;-0.372217; 0.777222;,
       0.868174;-0.359609; 0.877269;,
       0.826773;-0.342460; 0.977593;,
       0.775426;-0.321192; 1.075723;,
       0.715397;-0.296327; 1.169244;,
       0.648166;-0.268479; 1.255852;,
       0.575387;-0.238333; 1.333414;,
       0.498852;-0.206631; 1.400022;,
       0.831470;-0.555570; 0.587745;,
       0.378392;-0.252833; 1.454034;,
       0.825578;-0.551633; 0.679915;,
       0.808728;-0.540375; 0.777222;,
       0.781336;-0.522072; 0.877269;,
       0.744076;-0.497175; 0.977593;,
       0.697865;-0.466298; 1.075723;,
       0.643841;-0.430200; 1.169244;,
       0.583334;-0.389771; 1.255852;,
       0.517834;-0.346006; 1.333414;,
       0.448955;-0.299982; 1.400022;,
       0.707107;-0.707107; 0.587745;,
       0.321796;-0.321796; 1.454034;,
       0.702096;-0.702096; 0.679915;,
       0.687767;-0.687767; 0.777222;,
       0.664472;-0.664472; 0.877269;,
       0.632784;-0.632784; 0.977593;,
       0.593485;-0.593485; 1.075723;,
       0.547541;-0.547541; 1.169244;,
       0.496085;-0.496085; 1.255852;,
       0.440382;-0.440382; 1.333414;,
       0.381805;-0.381805; 1.400022;,
       0.555570;-0.831470; 0.587745;,
       0.252833;-0.378391; 1.454034;,
       0.551633;-0.825578; 0.679915;,
       0.540375;-0.808728; 0.777222;,
       0.522072;-0.781336; 0.877269;,
       0.497176;-0.744076; 0.977593;,
       0.466298;-0.697865; 1.075723;,
       0.430201;-0.643840; 1.169244;,
       0.389771;-0.583334; 1.255852;,
       0.346006;-0.517834; 1.333414;,
       0.299982;-0.448955; 1.400022;,
       0.382683;-0.923880; 0.587745;,
       0.174155;-0.420446; 1.454034;,
       0.379972;-0.917333; 0.679915;,
       0.372217;-0.898611; 0.777222;,
       0.359609;-0.868174; 0.877269;,
       0.342460;-0.826773; 0.977593;,
       0.321192;-0.775426; 1.075723;,
       0.296327;-0.715397; 1.169244;,
       0.268479;-0.648166; 1.255852;,
       0.238333;-0.575387; 1.333414;,
       0.206631;-0.498852; 1.400022;,
       0.195090;-0.980785; 0.587745;,
       0.088783;-0.446343; 1.454034;,
       0.193708;-0.973835; 0.679915;,
       0.189754;-0.953960; 0.777222;,
       0.183327;-0.921649; 0.877269;,
       0.174585;-0.877697; 0.977593;,
       0.163742;-0.823187; 1.075723;,
       0.151066;-0.759462; 1.169244;,
       0.136869;-0.688089; 1.255852;,
       0.121501;-0.610827; 1.333414;,
       0.105339;-0.529578; 1.400022;,
      -0.000000;-1.000000; 0.587745;,
       0.000000;-0.455088; 1.454034;,
      -0.000000;-0.992914; 0.679915;,
      -0.000000;-0.972649; 0.777222;,
      -0.000000;-0.939705; 0.877269;,
      -0.000000;-0.894892; 0.977593;,
      -0.000000;-0.839315; 1.075723;,
      -0.000000;-0.774340; 1.169244;,
      -0.000000;-0.701570; 1.255852;,
      -0.000000;-0.622794; 1.333414;,
      -0.000000;-0.539953; 1.400022;,
      -0.195091;-0.980785; 0.587745;,
      -0.088783;-0.446343; 1.454034;,
      -0.193708;-0.973835; 0.679915;,
      -0.189755;-0.953960; 0.777222;,
      -0.183328;-0.921649; 0.877269;,
      -0.174585;-0.877697; 0.977593;,
      -0.163742;-0.823187; 1.075723;,
      -0.151067;-0.759462; 1.169244;,
      -0.136870;-0.688089; 1.255852;,
      -0.121501;-0.610827; 1.333414;,
      -0.105340;-0.529578; 1.400022;,
      -0.382684;-0.923879; 0.587745;,
      -0.174154;-0.420446; 1.454034;,
      -0.379972;-0.917333; 0.679915;,
      -0.372217;-0.898611; 0.777222;,
      -0.359610;-0.868174; 0.877269;,
      -0.342461;-0.826773; 0.977593;,
      -0.321192;-0.775425; 1.075723;,
      -0.296327;-0.715397; 1.169244;,
      -0.268479;-0.648166; 1.255852;,
      -0.238333;-0.575387; 1.333414;,
      -0.206631;-0.498852; 1.400022;,
      -0.555571;-0.831469; 0.587745;,
      -0.252834;-0.378391; 1.454034;,
      -0.551634;-0.825577; 0.679915;,
      -0.540376;-0.808728; 0.777222;,
      -0.522073;-0.781336; 0.877269;,
      -0.497176;-0.744075; 0.977593;,
      -0.466299;-0.697864; 1.075723;,
      -0.430201;-0.643840; 1.169244;,
      -0.389772;-0.583333; 1.255852;,
      -0.346006;-0.517834; 1.333414;,
      -0.299983;-0.448955; 1.400022;,
      -0.707107;-0.707106; 0.587745;,
      -0.321796;-0.321795; 1.454034;,
      -0.702097;-0.702096; 0.679916;,
      -0.687767;-0.687767; 0.777222;,
      -0.664472;-0.664471; 0.877269;,
      -0.632785;-0.632784; 0.977593;,
      -0.593485;-0.593485; 1.075723;,
      -0.547542;-0.547541; 1.169244;,
      -0.496085;-0.496084; 1.255852;,
      -0.440382;-0.440382; 1.333414;,
      -0.381805;-0.381804; 1.400022;,
      -0.831470;-0.555570; 0.587745;,
      -0.378392;-0.252833; 1.454034;,
      -0.825578;-0.551633; 0.679915;,
      -0.808729;-0.540374; 0.777222;,
      -0.781337;-0.522072; 0.877269;,
      -0.744076;-0.497175; 0.977593;,
      -0.697865;-0.466298; 1.075723;,
      -0.643841;-0.430200; 1.169244;,
      -0.583334;-0.389771; 1.255852;,
      -0.517835;-0.346005; 1.333414;,
      -0.448955;-0.299982; 1.400022;,
      -0.923880;-0.382683; 0.587745;,
      -0.420446;-0.174154; 1.454034;,
      -0.917333;-0.379971; 0.679915;,
      -0.898611;-0.372216; 0.777222;,
      -0.868175;-0.359609; 0.877269;,
      -0.826773;-0.342460; 0.977593;,
      -0.775426;-0.321191; 1.075723;,
      -0.715397;-0.296327; 1.169244;,
      -0.648166;-0.268478; 1.255852;,
      -0.575387;-0.238332; 1.333414;,
      -0.498852;-0.206631; 1.400022;,
      -0.980785;-0.195089; 0.587745;,
      -0.446343;-0.088783; 1.454034;,
      -0.973836;-0.193707; 0.679915;,
      -0.953960;-0.189754; 0.777222;,
      -0.921649;-0.183327; 0.877269;,
      -0.877697;-0.174584; 0.977593;,
      -0.823188;-0.163741; 1.075723;,
      -0.759462;-0.151066; 1.169244;,
      -0.688089;-0.136869; 1.255852;,
      -0.610827;-0.121501; 1.333414;,
      -0.529579;-0.105339; 1.400022;,
      -1.000000; 0.000001; 0.587745;,
      -0.455088; 0.000001; 1.454034;,
      -0.992914; 0.000001; 0.679916;,
      -0.972649; 0.000001; 0.777222;,
      -0.939705; 0.000001; 0.877269;,
      -0.894892; 0.000001; 0.977593;,
      -0.839315; 0.000001; 1.075723;,
      -0.774341; 0.000001; 1.169244;,
      -0.701570; 0.000001; 1.255852;,
      -0.622794; 0.000001; 1.333414;,
      -0.539953; 0.000001; 1.400022;,
      -0.980785; 0.195091; 0.587745;,
      -0.446343; 0.088784; 1.454034;,
      -0.973835; 0.193709; 0.679916;,
      -0.953960; 0.189755; 0.777222;,
      -0.921649; 0.183328; 0.877269;,
      -0.877697; 0.174586; 0.977593;,
      -0.823187; 0.163743; 1.075723;,
      -0.759462; 0.151067; 1.169244;,
      -0.688089; 0.136870; 1.255852;,
      -0.610827; 0.121502; 1.333414;,
      -0.529578; 0.105340; 1.400022;,
      -0.923879; 0.382684; 0.587745;,
      -0.420446; 0.174155; 1.454034;,
      -0.917333; 0.379973; 0.679915;,
      -0.898610; 0.372218; 0.777222;,
      -0.868174; 0.359611; 0.877269;,
      -0.826772; 0.342461; 0.977593;,
      -0.775425; 0.321193; 1.075723;,
      -0.715397; 0.296328; 1.169244;,
      -0.648166; 0.268480; 1.255852;,
      -0.575386; 0.238334; 1.333414;,
      -0.498852; 0.206632; 1.400022;,
      -0.831469; 0.555571; 0.587745;,
      -0.378391; 0.252834; 1.454034;,
      -0.825577; 0.551635; 0.679915;,
      -0.808728; 0.540376; 0.777222;,
      -0.781336; 0.522073; 0.877269;,
      -0.744075; 0.497177; 0.977593;,
      -0.697864; 0.466299; 1.075723;,
      -0.643840; 0.430201; 1.169244;,
      -0.583333; 0.389772; 1.255852;,
      -0.517834; 0.346007; 1.333414;,
      -0.448954; 0.299983; 1.400022;,
      -0.707106; 0.707108; 0.587745;,
      -0.321795; 0.321796; 1.454034;,
      -0.702095; 0.702097; 0.679915;,
      -0.687766; 0.687768; 0.777222;,
      -0.664471; 0.664473; 0.877269;,
      -0.632784; 0.632785; 0.977593;,
      -0.593484; 0.593486; 1.075723;,
      -0.547541; 0.547542; 1.169244;,
      -0.496084; 0.496085; 1.255852;,
      -0.440381; 0.440382; 1.333414;,
      -0.381804; 0.381805; 1.400022;,
      -0.555569; 0.831470; 0.587745;,
      -0.252832; 0.378392; 1.454034;,
      -0.551632; 0.825579; 0.679915;,
      -0.540374; 0.808729; 0.777222;,
      -0.522071; 0.781337; 0.877269;,
      -0.497174; 0.744076; 0.977593;,
      -0.466297; 0.697865; 1.075723;,
      -0.430199; 0.643841; 1.169244;,
      -0.389770; 0.583335; 1.255852;,
      -0.346005; 0.517835; 1.333414;,
      -0.299981; 0.448956; 1.400022;,
      -0.382682; 0.923880; 0.587745;,
      -0.174154; 0.420446; 1.454034;,
      -0.379970; 0.917333; 0.679915;,
      -0.372216; 0.898611; 0.777222;,
      -0.359608; 0.868175; 0.877269;,
      -0.342459; 0.826773; 0.977593;,
      -0.321191; 0.775426; 1.075723;,
      -0.296326; 0.715398; 1.169244;,
      -0.268478; 0.648166; 1.255852;,
      -0.238332; 0.575387; 1.333414;,
      -0.206631; 0.498852; 1.400022;,
      -0.088782; 0.446344; 1.454034;,
      -0.195089; 0.980786; 0.587745;,
      -0.105338; 0.529579; 1.400022;,
      -0.121500; 0.610827; 1.333414;,
      -0.136868; 0.688089; 1.255852;,
      -0.151065; 0.759462; 1.169244;,
      -0.163741; 0.823188; 1.075723;,
      -0.174583; 0.877697; 0.977593;,
      -0.183326; 0.921649; 0.877269;,
      -0.189753; 0.953960; 0.777222;,
      -0.193706; 0.973836; 0.679915;,
      -0.195089; 0.980786;-0.831901;,
       0.000000; 1.000000;-0.831901;,
       0.195090; 0.980785;-0.831901;,
       0.382683; 0.923880;-0.831901;,
       0.555570; 0.831470;-0.831901;,
       0.707107; 0.707107;-0.831901;,
       0.831470; 0.555570;-0.831901;,
       0.923880; 0.382683;-0.831901;,
       0.980785; 0.195090;-0.831901;,
       1.000000; 0.000000;-0.831901;,
       0.980785;-0.195090;-0.831901;,
       0.923880;-0.382683;-0.831901;,
       0.831470;-0.555570;-0.831901;,
       0.707107;-0.707107;-0.831901;,
       0.555570;-0.831470;-0.831901;,
       0.382683;-0.923880;-0.831901;,
       0.195090;-0.980785;-0.831901;,
      -0.000000;-1.000000;-0.831901;,
      -0.195091;-0.980785;-0.831901;,
      -0.382684;-0.923879;-0.831901;,
      -0.555571;-0.831469;-0.831901;,
      -0.707107;-0.707106;-0.831901;,
      -0.831470;-0.555570;-0.831901;,
      -0.923880;-0.382683;-0.831901;,
      -0.980785;-0.195089;-0.831901;,
      -1.000000; 0.000001;-0.831901;,
      -0.980785; 0.195091;-0.831901;,
      -0.923879; 0.382684;-0.831901;,
      -0.831469; 0.555571;-0.831901;,
      -0.707106; 0.707108;-0.831901;,
      -0.555569; 0.831470;-0.831901;,
      -0.382682; 0.923880;-0.831901;,
      -0.478481; 1.155160; 0.473890;,
      -1.155159; 0.478484; 0.473890;,
      -1.226311;-0.243927; 0.473890;,
      -0.884121;-0.884120; 0.473890;,
      -0.243929;-1.226310; 0.473890;,
       0.478482;-1.155159; 0.473890;,
       1.039616;-0.694649; 0.473890;,
       1.250335; 0.000000; 0.473890;,
       1.039616; 0.694649; 0.473890;,
       0.478483; 1.155159; 0.473890;,
      -0.243926; 1.226311; 0.473890;,
      -0.694648; 1.039617; 0.473890;,
      -0.884119; 0.884122; 0.473890;,
      -1.226310; 0.243930; 0.473890;,
      -1.155160;-0.478482; 0.473890;,
      -0.694650;-1.039616; 0.473890;,
      -0.000000;-1.250335; 0.473890;,
       0.694649;-1.039616; 0.473890;,
       1.155159;-0.478482; 0.473890;,
       1.226310; 0.243928; 0.473890;,
       0.884121; 0.884121; 0.473890;,
       0.243928; 1.226310; 0.473890;,
      -1.039615; 0.694650; 0.473890;,
      -1.250335; 0.000001; 0.473890;,
      -1.039616;-0.694648; 0.473890;,
      -0.478483;-1.155159; 0.473890;,
       0.243928;-1.226310; 0.473890;,
       0.884121;-0.884121; 0.473890;,
       1.226310;-0.243928; 0.473890;,
       1.155159; 0.478483; 0.473890;,
       0.694649; 1.039616; 0.473890;,
      -0.000000; 1.250335; 0.473890;,
      -0.478481; 1.155160;-0.826321;,
      -1.155159; 0.478484;-0.826321;,
      -1.226311;-0.243927;-0.826321;,
      -0.884121;-0.884120;-0.826321;,
      -0.243929;-1.226310;-0.826321;,
       0.478482;-1.155159;-0.826321;,
       1.039616;-0.694649;-0.826321;,
       1.250335; 0.000000;-0.826321;,
       1.039616; 0.694649;-0.826321;,
       0.478483; 1.155159;-0.826321;,
      -0.243926; 1.226311;-0.826321;,
      -0.694648; 1.039617;-0.826321;,
      -0.884119; 0.884122;-0.826321;,
      -1.226310; 0.243930;-0.826321;,
      -1.155160;-0.478482;-0.826321;,
      -0.694650;-1.039616;-0.826321;,
      -0.000000;-1.250335;-0.826321;,
       0.694649;-1.039616;-0.826321;,
       1.155159;-0.478482;-0.826321;,
       1.226310; 0.243928;-0.826321;,
       0.884121; 0.884121;-0.826321;,
       0.243928; 1.226310;-0.826321;,
      -1.039615; 0.694650;-0.826321;,
      -1.250335; 0.000001;-0.826321;,
      -1.039616;-0.694648;-0.826321;,
      -0.478483;-1.155159;-0.826321;,
       0.243928;-1.226310;-0.826321;,
       0.884121;-0.884121;-0.826321;,
       1.226310;-0.243928;-0.826321;,
       1.155159; 0.478483;-0.826321;,
       0.694649; 1.039616;-0.826321;,
      -0.000000; 1.250335;-0.826321;,
      -0.478481; 1.155160;-0.305616;,
      -1.155159; 0.478484;-0.305616;,
      -1.226311;-0.243927;-0.305616;,
      -0.884121;-0.884120;-0.305615;,
      -0.243929;-1.226310;-0.305616;,
       0.478482;-1.155159;-0.305616;,
       1.039616;-0.694649;-0.305616;,
       1.250335; 0.000000;-0.037177;,
       1.039616; 0.694649;-0.305616;,
       0.478483; 1.155159;-0.305616;,
      -0.243926; 1.226311;-0.305616;,
      -0.694648; 1.039617;-0.305616;,
      -0.884119; 0.884122;-0.305616;,
      -1.226310; 0.243930;-0.305615;,
      -1.155160;-0.478482;-0.305616;,
      -0.694650;-1.039616;-0.305616;,
      -0.000000;-1.250335;-0.036803;,
       0.694649;-1.039616;-0.305616;,
       1.155159;-0.478482;-0.305616;,
       1.226310; 0.243928;-0.305616;,
       0.884121; 0.884121;-0.305616;,
       0.243928; 1.226310;-0.305616;,
      -1.039615; 0.694650;-0.305616;,
      -1.250335; 0.000001;-0.036803;,
      -1.039616;-0.694648;-0.305616;,
      -0.478483;-1.155159;-0.305616;,
       0.243928;-1.226310;-0.305616;,
       0.884121;-0.884121;-0.305616;,
       1.226310;-0.243928;-0.305616;,
       1.155159; 0.478483;-0.305616;,
       0.694649; 1.039616;-0.305616;,
      -0.000000; 1.250335;-0.036803;,
       1.760894; 0.005617;-0.994475;,
      -0.001586; 1.777221;-1.003462;,
      -1.809864; 0.003007;-1.026102;,
       0.015057;-1.695018;-1.014589;;
      557;
      32;32,31,30,29,28,27,26,25,24,23,22,21,20,19,18,17,16,15,14,13,12,11,10,9,8,7,6,5,4,3,2,0;,
      3;65,1,406;,
      3;88,1,77;,
      3;99,1,88;,
      3;110,1,99;,
      3;121,1,110;,
      3;132,1,121;,
      3;143,1,132;,
      3;154,1,143;,
      3;165,1,154;,
      3;176,1,165;,
      3;187,1,176;,
      3;198,1,187;,
      3;209,1,198;,
      3;220,1,209;,
      3;231,1,220;,
      3;242,1,231;,
      3;253,1,242;,
      3;264,1,253;,
      3;275,1,264;,
      3;286,1,275;,
      3;297,1,286;,
      3;308,1,297;,
      3;319,1,308;,
      3;330,1,319;,
      3;341,1,330;,
      3;352,1,341;,
      3;363,1,352;,
      3;374,1,363;,
      3;385,1,374;,
      3;396,1,385;,
      4;62,76,66,63;,
      3;406,1,396;,
      4;63,66,407,64;,
      4;60,98,87,61;,
      4;59,109,98,60;,
      4;58,120,109,59;,
      4;57,131,120,58;,
      4;56,142,131,57;,
      4;55,153,142,56;,
      4;54,164,153,55;,
      4;53,175,164,54;,
      4;52,186,175,53;,
      4;51,197,186,52;,
      4;50,208,197,51;,
      4;49,219,208,50;,
      4;48,230,219,49;,
      4;47,241,230,48;,
      4;46,252,241,47;,
      4;45,263,252,46;,
      4;44,274,263,45;,
      4;43,285,274,44;,
      4;42,296,285,43;,
      4;41,307,296,42;,
      4;40,318,307,41;,
      4;39,329,318,40;,
      4;38,340,329,39;,
      4;37,351,340,38;,
      4;36,362,351,37;,
      4;35,373,362,36;,
      4;34,384,373,35;,
      4;33,395,384,34;,
      4;64,407,395,33;,
      4;61,87,76,62;,
      4;470,62,63,480;,
      4;67,86,77,65;,
      4;68,85,86,67;,
      4;69,84,85,68;,
      4;70,83,84,69;,
      4;71,82,83,70;,
      4;72,81,82,71;,
      4;73,80,81,72;,
      4;74,79,80,73;,
      4;75,78,79,74;,
      4;66,76,78,75;,
      4;86,97,88,77;,
      4;85,96,97,86;,
      4;84,95,96,85;,
      4;83,94,95,84;,
      4;82,93,94,83;,
      4;81,92,93,82;,
      4;80,91,92,81;,
      4;79,90,91,80;,
      4;78,89,90,79;,
      4;76,87,89,78;,
      4;97,108,99,88;,
      4;96,107,108,97;,
      4;95,106,107,96;,
      4;94,105,106,95;,
      4;93,104,105,94;,
      4;92,103,104,93;,
      4;91,102,103,92;,
      4;90,101,102,91;,
      4;89,100,101,90;,
      4;87,98,100,89;,
      4;108,119,110,99;,
      4;107,118,119,108;,
      4;106,117,118,107;,
      4;105,116,117,106;,
      4;104,115,116,105;,
      4;103,114,115,104;,
      4;102,113,114,103;,
      4;101,112,113,102;,
      4;100,111,112,101;,
      4;98,109,111,100;,
      4;119,130,121,110;,
      4;118,129,130,119;,
      4;117,128,129,118;,
      4;116,127,128,117;,
      4;115,126,127,116;,
      4;114,125,126,115;,
      4;113,124,125,114;,
      4;112,123,124,113;,
      4;111,122,123,112;,
      4;109,120,122,111;,
      4;130,141,132,121;,
      4;129,140,141,130;,
      4;128,139,140,129;,
      4;127,138,139,128;,
      4;126,137,138,127;,
      4;125,136,137,126;,
      4;124,135,136,125;,
      4;123,134,135,124;,
      4;122,133,134,123;,
      4;120,131,133,122;,
      4;141,152,143,132;,
      4;140,151,152,141;,
      4;139,150,151,140;,
      4;138,149,150,139;,
      4;137,148,149,138;,
      4;136,147,148,137;,
      4;135,146,147,136;,
      4;134,145,146,135;,
      4;133,144,145,134;,
      4;131,142,144,133;,
      4;152,163,154,143;,
      4;151,162,163,152;,
      4;150,161,162,151;,
      4;149,160,161,150;,
      4;148,159,160,149;,
      4;147,158,159,148;,
      4;146,157,158,147;,
      4;145,156,157,146;,
      4;144,155,156,145;,
      4;142,153,155,144;,
      4;163,174,165,154;,
      4;162,173,174,163;,
      4;161,172,173,162;,
      4;160,171,172,161;,
      4;159,170,171,160;,
      4;158,169,170,159;,
      4;157,168,169,158;,
      4;156,167,168,157;,
      4;155,166,167,156;,
      4;153,164,166,155;,
      4;174,185,176,165;,
      4;173,184,185,174;,
      4;172,183,184,173;,
      4;171,182,183,172;,
      4;170,181,182,171;,
      4;169,180,181,170;,
      4;168,179,180,169;,
      4;167,178,179,168;,
      4;166,177,178,167;,
      4;164,175,177,166;,
      4;185,196,187,176;,
      4;184,195,196,185;,
      4;183,194,195,184;,
      4;182,193,194,183;,
      4;181,192,193,182;,
      4;180,191,192,181;,
      4;179,190,191,180;,
      4;178,189,190,179;,
      4;177,188,189,178;,
      4;175,186,188,177;,
      4;196,207,198,187;,
      4;195,206,207,196;,
      4;194,205,206,195;,
      4;193,204,205,194;,
      4;192,203,204,193;,
      4;191,202,203,192;,
      4;190,201,202,191;,
      4;189,200,201,190;,
      4;188,199,200,189;,
      4;186,197,199,188;,
      4;207,218,209,198;,
      4;206,217,218,207;,
      4;205,216,217,206;,
      4;204,215,216,205;,
      4;203,214,215,204;,
      4;202,213,214,203;,
      4;201,212,213,202;,
      4;200,211,212,201;,
      4;199,210,211,200;,
      4;197,208,210,199;,
      4;218,229,220,209;,
      4;217,228,229,218;,
      4;216,227,228,217;,
      4;215,226,227,216;,
      4;214,225,226,215;,
      4;213,224,225,214;,
      4;212,223,224,213;,
      4;211,222,223,212;,
      4;210,221,222,211;,
      4;208,219,221,210;,
      4;229,240,231,220;,
      4;228,239,240,229;,
      4;227,238,239,228;,
      4;226,237,238,227;,
      4;225,236,237,226;,
      4;224,235,236,225;,
      4;223,234,235,224;,
      4;222,233,234,223;,
      4;221,232,233,222;,
      4;219,230,232,221;,
      4;240,251,242,231;,
      4;239,250,251,240;,
      4;238,249,250,239;,
      4;237,248,249,238;,
      4;236,247,248,237;,
      4;235,246,247,236;,
      4;234,245,246,235;,
      4;233,244,245,234;,
      4;232,243,244,233;,
      4;230,241,243,232;,
      4;251,262,253,242;,
      4;250,261,262,251;,
      4;249,260,261,250;,
      4;248,259,260,249;,
      4;247,258,259,248;,
      4;246,257,258,247;,
      4;245,256,257,246;,
      4;244,255,256,245;,
      4;243,254,255,244;,
      4;241,252,254,243;,
      4;262,273,264,253;,
      4;261,272,273,262;,
      4;260,271,272,261;,
      4;259,270,271,260;,
      4;258,269,270,259;,
      4;257,268,269,258;,
      4;256,267,268,257;,
      4;255,266,267,256;,
      4;254,265,266,255;,
      4;252,263,265,254;,
      4;273,284,275,264;,
      4;272,283,284,273;,
      4;271,282,283,272;,
      4;270,281,282,271;,
      4;269,280,281,270;,
      4;268,279,280,269;,
      4;267,278,279,268;,
      4;266,277,278,267;,
      4;265,276,277,266;,
      4;263,274,276,265;,
      4;284,295,286,275;,
      4;283,294,295,284;,
      4;282,293,294,283;,
      4;281,292,293,282;,
      4;280,291,292,281;,
      4;279,290,291,280;,
      4;278,289,290,279;,
      4;277,288,289,278;,
      4;276,287,288,277;,
      4;274,285,287,276;,
      4;295,306,297,286;,
      4;294,305,306,295;,
      4;293,304,305,294;,
      4;292,303,304,293;,
      4;291,302,303,292;,
      4;290,301,302,291;,
      4;289,300,301,290;,
      4;288,299,300,289;,
      4;287,298,299,288;,
      4;285,296,298,287;,
      4;306,317,308,297;,
      4;305,316,317,306;,
      4;304,315,316,305;,
      4;303,314,315,304;,
      4;302,313,314,303;,
      4;301,312,313,302;,
      4;300,311,312,301;,
      4;299,310,311,300;,
      4;298,309,310,299;,
      4;296,307,309,298;,
      4;317,328,319,308;,
      4;316,327,328,317;,
      4;315,326,327,316;,
      4;314,325,326,315;,
      4;313,324,325,314;,
      4;312,323,324,313;,
      4;311,322,323,312;,
      4;310,321,322,311;,
      4;309,320,321,310;,
      4;307,318,320,309;,
      4;328,339,330,319;,
      4;327,338,339,328;,
      4;326,337,338,327;,
      4;325,336,337,326;,
      4;324,335,336,325;,
      4;323,334,335,324;,
      4;322,333,334,323;,
      4;321,332,333,322;,
      4;320,331,332,321;,
      4;318,329,331,320;,
      4;339,350,341,330;,
      4;338,349,350,339;,
      4;337,348,349,338;,
      4;336,347,348,337;,
      4;335,346,347,336;,
      4;334,345,346,335;,
      4;333,344,345,334;,
      4;332,343,344,333;,
      4;331,342,343,332;,
      4;329,340,342,331;,
      4;350,361,352,341;,
      4;349,360,361,350;,
      4;348,359,360,349;,
      4;347,358,359,348;,
      4;346,357,358,347;,
      4;345,356,357,346;,
      4;344,355,356,345;,
      4;343,354,355,344;,
      4;342,353,354,343;,
      4;340,351,353,342;,
      4;361,372,363,352;,
      4;360,371,372,361;,
      4;359,370,371,360;,
      4;358,369,370,359;,
      4;357,368,369,358;,
      4;356,367,368,357;,
      4;355,366,367,356;,
      4;354,365,366,355;,
      4;353,364,365,354;,
      4;351,362,364,353;,
      4;372,383,374,363;,
      4;371,382,383,372;,
      4;370,381,382,371;,
      4;369,380,381,370;,
      4;368,379,380,369;,
      4;367,378,379,368;,
      4;366,377,378,367;,
      4;365,376,377,366;,
      4;364,375,376,365;,
      4;362,373,375,364;,
      4;383,394,385,374;,
      4;382,393,394,383;,
      4;381,392,393,382;,
      4;380,391,392,381;,
      4;379,390,391,380;,
      4;378,389,390,379;,
      4;377,388,389,378;,
      4;376,387,388,377;,
      4;375,386,387,376;,
      4;373,384,386,375;,
      4;394,405,396,385;,
      4;393,404,405,394;,
      4;392,403,404,393;,
      4;391,402,403,392;,
      4;390,401,402,391;,
      4;389,400,401,390;,
      4;388,399,400,389;,
      4;387,398,399,388;,
      4;386,397,398,387;,
      4;384,395,397,386;,
      4;408,67,65,406;,
      4;409,68,67,408;,
      4;410,69,68,409;,
      4;411,70,69,410;,
      4;412,71,70,411;,
      4;413,72,71,412;,
      4;414,73,72,413;,
      4;415,74,73,414;,
      4;416,75,74,415;,
      4;407,66,75,416;,
      4;405,408,406,396;,
      4;404,409,408,405;,
      4;403,410,409,404;,
      4;402,411,410,403;,
      4;401,412,411,402;,
      4;400,413,412,401;,
      4;399,414,413,400;,
      4;398,415,414,399;,
      4;397,416,415,398;,
      4;395,407,416,397;,
      3;77,1,65;,
      4;480,63,64,459;,
      4;479,60,61,458;,
      4;469,59,60,479;,
      4;457,58,59,469;,
      4;478,57,58,457;,
      4;468,56,57,478;,
      4;456,55,56,468;,
      4;477,54,55,456;,
      4;467,53,54,477;,
      4;455,52,53,467;,
      4;476,51,52,455;,
      4;466,50,51,476;,
      4;454,49,50,466;,
      4;475,48,49,454;,
      4;465,47,48,475;,
      4;453,46,47,465;,
      4;474,45,46,453;,
      4;464,44,45,474;,
      4;452,43,44,464;,
      4;473,42,43,452;,
      4;463,41,42,473;,
      4;451,40,41,463;,
      4;472,39,40,451;,
      4;462,38,39,472;,
      4;450,37,38,462;,
      4;471,36,37,450;,
      4;461,35,36,471;,
      4;460,34,35,461;,
      4;449,33,34,460;,
      4;459,64,33,449;,
      4;458,61,62,470;,
      4;2,419,418,0;,
      4;0,418,417,32;,
      4;4,421,420,3;,
      4;5,422,421,4;,
      4;6,423,422,5;,
      4;7,424,423,6;,
      4;8,425,424,7;,
      4;9,426,425,8;,
      4;10,427,426,9;,
      4;11,428,427,10;,
      4;12,429,428,11;,
      4;13,430,429,12;,
      4;14,431,430,13;,
      4;15,432,431,14;,
      4;16,433,432,15;,
      4;17,434,433,16;,
      4;18,435,434,17;,
      4;19,436,435,18;,
      4;20,437,436,19;,
      4;21,438,437,20;,
      4;22,439,438,21;,
      4;23,440,439,22;,
      4;24,441,440,23;,
      4;25,442,441,24;,
      4;26,443,442,25;,
      4;27,444,443,26;,
      4;28,445,444,27;,
      4;29,446,445,28;,
      4;30,447,446,29;,
      4;31,448,447,30;,
      4;32,417,448,31;,
      4;3,420,419,2;,
      4;534,470,480,544;,
      4;544,480,459,523;,
      4;543,479,458,522;,
      4;533,469,479,543;,
      4;521,457,469,533;,
      4;542,478,457,521;,
      4;532,468,478,542;,
      4;520,456,468,532;,
      4;541,477,456,520;,
      4;531,467,477,541;,
      4;519,455,467,531;,
      4;540,476,455,519;,
      4;530,466,476,540;,
      4;518,454,466,530;,
      4;539,475,454,518;,
      4;529,465,475,539;,
      4;517,453,465,529;,
      4;538,474,453,517;,
      4;528,464,474,538;,
      4;516,452,464,528;,
      4;537,473,452,516;,
      4;527,463,473,537;,
      4;515,451,463,527;,
      4;536,472,451,515;,
      4;526,462,472,536;,
      4;514,450,462,526;,
      4;535,471,450,514;,
      4;525,461,471,535;,
      4;524,460,461,525;,
      4;513,449,460,524;,
      4;523,459,449,513;,
      4;522,458,470,534;,
      4;419,502,512,418;,
      4;418,512,491,417;,
      4;421,511,490,420;,
      4;422,501,511,421;,
      4;423,489,501,422;,
      4;424,510,489,423;,
      4;425,500,510,424;,
      4;426,488,500,425;,
      4;427,509,488,426;,
      4;428,499,509,427;,
      4;429,487,499,428;,
      4;430,508,487,429;,
      4;431,498,508,430;,
      4;432,486,498,431;,
      4;433,507,486,432;,
      4;434,497,507,433;,
      4;435,485,497,434;,
      4;436,506,485,435;,
      4;437,496,506,436;,
      4;438,484,496,437;,
      4;439,505,484,438;,
      4;440,495,505,439;,
      4;441,483,495,440;,
      4;442,504,483,441;,
      4;443,494,504,442;,
      4;444,482,494,443;,
      4;445,503,482,444;,
      4;446,493,503,445;,
      4;447,492,493,446;,
      4;448,481,492,447;,
      4;417,491,481,448;,
      4;420,490,502,419;,
      4;502,534,544,512;,
      4;512,544,523,491;,
      4;511,543,522,490;,
      4;501,533,543,511;,
      4;489,521,533,501;,
      4;510,542,521,489;,
      4;500,532,542,510;,
      4;488,520,532,500;,
      4;509,541,520,488;,
      4;499,531,541,509;,
      4;487,519,531,499;,
      4;508,540,519,487;,
      4;498,530,540,508;,
      4;486,518,530,498;,
      4;507,539,518,486;,
      4;497,529,539,507;,
      4;485,517,529,497;,
      4;506,538,517,485;,
      4;496,528,538,506;,
      4;484,516,528,496;,
      4;505,537,516,484;,
      4;495,527,537,505;,
      4;483,515,527,495;,
      4;504,536,515,483;,
      4;494,526,536,504;,
      4;482,514,526,494;,
      4;503,535,514,482;,
      4;493,525,535,503;,
      4;492,524,525,493;,
      4;481,513,524,492;,
      4;491,523,513,481;,
      4;490,522,534,502;,
      3;545,9,426;,
      3;546,512,544;,
      3;545,520,488;,
      3;545,426,488;,
      3;547,536,504;,
      3;546,418,0;,
      3;546,512,418;,
      3;547,25,442;,
      3;547,442,504;,
      3;548,17,434;,
      3;548,434,497;,
      3;548,529,497;;
      MeshNormals { // Cylinder normals
        557;
         0.000000; 0.000000;-1.000000;,
        -0.023024; 0.233768; 0.972020;,
         0.068188; 0.224785; 0.972020;,
         0.110731; 0.207163; 0.972020;,
         0.149019; 0.181580; 0.972020;,
         0.181580; 0.149019; 0.972020;,
         0.207163; 0.110731; 0.972020;,
         0.224785; 0.068187; 0.972020;,
         0.233769; 0.023024; 0.972020;,
         0.233769;-0.023024; 0.972020;,
         0.224785;-0.068188; 0.972020;,
         0.207163;-0.110731; 0.972020;,
         0.181580;-0.149019; 0.972020;,
         0.149019;-0.181580; 0.972020;,
         0.110731;-0.207163; 0.972020;,
         0.068188;-0.224785; 0.972020;,
         0.023024;-0.233768; 0.972020;,
        -0.023024;-0.233768; 0.972020;,
        -0.068188;-0.224785; 0.972020;,
        -0.110731;-0.207163; 0.972020;,
        -0.149019;-0.181580; 0.972020;,
        -0.181580;-0.149019; 0.972020;,
        -0.207163;-0.110731; 0.972020;,
        -0.224785;-0.068187; 0.972020;,
        -0.233769;-0.023024; 0.972020;,
        -0.233769; 0.023024; 0.972020;,
        -0.224785; 0.068188; 0.972020;,
        -0.207163; 0.110731; 0.972020;,
        -0.181580; 0.149018; 0.972020;,
        -0.149019; 0.181580; 0.972020;,
        -0.110731; 0.207163; 0.972020;,
         0.098017; 0.995185; 0.000000;,
        -0.068187; 0.224785; 0.972020;,
        -0.098017; 0.995185; 0.000000;,
         0.471397; 0.881921; 0.000000;,
         0.634393; 0.773010; 0.000000;,
         0.773010; 0.634393; 0.000000;,
         0.881921; 0.471397; 0.000000;,
         0.956940; 0.290285; 0.000000;,
         0.995185; 0.098017; 0.000000;,
         0.995185;-0.098017; 0.000000;,
         0.956940;-0.290285; 0.000000;,
         0.881921;-0.471396; 0.000000;,
         0.773010;-0.634393; 0.000000;,
         0.634393;-0.773010; 0.000000;,
         0.471397;-0.881921; 0.000000;,
         0.290284;-0.956940; 0.000000;,
         0.098017;-0.995185; 0.000000;,
        -0.098017;-0.995185; 0.000000;,
        -0.290285;-0.956940; 0.000000;,
        -0.471397;-0.881921; 0.000000;,
        -0.634394;-0.773010; 0.000000;,
        -0.773011;-0.634393; 0.000000;,
        -0.881922;-0.471396; 0.000000;,
        -0.956941;-0.290284; 0.000000;,
        -0.995185;-0.098016; 0.000000;,
        -0.995185; 0.098018; 0.000000;,
        -0.956940; 0.290286; 0.000000;,
        -0.881921; 0.471398; 0.000000;,
        -0.773010; 0.634394; 0.000000;,
        -0.634392; 0.773011; 0.000000;,
        -0.471395; 0.881922; 0.000000;,
        -0.290283; 0.956941; 0.000000;,
         0.290285; 0.956940; 0.000000;,
         0.004565; 0.046348; 0.998915;,
         0.052809; 0.536175; 0.842453;,
         0.061599; 0.625425; 0.777849;,
         0.068938; 0.699931; 0.710876;,
         0.075194; 0.763449; 0.641476;,
         0.080623; 0.818575; 0.568713;,
         0.085388; 0.866956; 0.491015;,
         0.089567; 0.909382; 0.406204;,
         0.093144; 0.945701; 0.311407;,
         0.095978; 0.974476; 0.202939;,
         0.097732; 0.992285; 0.076287;,
         0.156396; 0.515570; 0.842453;,
         0.182429; 0.601390; 0.777849;,
         0.204162; 0.673033; 0.710876;,
         0.222690; 0.734110; 0.641476;,
         0.238770; 0.787118; 0.568713;,
         0.252882; 0.833640; 0.491015;,
         0.265257; 0.874435; 0.406204;,
         0.275851; 0.909358; 0.311407;,
         0.284244; 0.937028; 0.202940;,
         0.289439; 0.954152; 0.076286;,
         0.253974; 0.475152; 0.842453;,
         0.296250; 0.554244; 0.777849;,
         0.331542; 0.620270; 0.710876;,
         0.361629; 0.676560; 0.641476;,
         0.387741; 0.725412; 0.568713;,
         0.410658; 0.768287; 0.491015;,
         0.430754; 0.805884; 0.406204;,
         0.447958; 0.838069; 0.311407;,
         0.461588; 0.863569; 0.202940;,
         0.470023; 0.879351; 0.076286;,
         0.341792; 0.416474; 0.842453;,
         0.398685; 0.485800; 0.777849;,
         0.446180; 0.543672; 0.710876;,
         0.486670; 0.593010; 0.641476;,
         0.521811; 0.635829; 0.568713;,
         0.552652; 0.673409; 0.491015;,
         0.579697; 0.706364; 0.406204;,
         0.602849; 0.734574; 0.311407;,
         0.621192; 0.756925; 0.202940;,
         0.632545; 0.770758; 0.076287;,
         0.416474; 0.341792; 0.842453;,
         0.485799; 0.398685; 0.777849;,
         0.543672; 0.446180; 0.710876;,
         0.593009; 0.486671; 0.641476;,
         0.635829; 0.521811; 0.568713;,
         0.673409; 0.552653; 0.491015;,
         0.706363; 0.579697; 0.406204;,
         0.734573; 0.602849; 0.311408;,
         0.756925; 0.621193; 0.202939;,
         0.770758; 0.632545; 0.076286;,
         0.475152; 0.253974; 0.842453;,
         0.554245; 0.296250; 0.777849;,
         0.620271; 0.331541; 0.710876;,
         0.676560; 0.361629; 0.641476;,
         0.725412; 0.387741; 0.568713;,
         0.768287; 0.410658; 0.491015;,
         0.805884; 0.430754; 0.406204;,
         0.838069; 0.447957; 0.311408;,
         0.863570; 0.461587; 0.202940;,
         0.879351; 0.470023; 0.076286;,
         0.515570; 0.156396; 0.842454;,
         0.601391; 0.182429; 0.777849;,
         0.673033; 0.204162; 0.710876;,
         0.734110; 0.222690; 0.641476;,
         0.787118; 0.238770; 0.568713;,
         0.833640; 0.252882; 0.491015;,
         0.874436; 0.265257; 0.406204;,
         0.909358; 0.275851; 0.311408;,
         0.937028; 0.284244; 0.202940;,
         0.954152; 0.289439; 0.076286;,
         0.536174; 0.052809; 0.842454;,
         0.625426; 0.061599; 0.777848;,
         0.699930; 0.068937; 0.710876;,
         0.763449; 0.075193; 0.641476;,
         0.818575; 0.080622; 0.568713;,
         0.866956; 0.085388; 0.491015;,
         0.909382; 0.089566; 0.406204;,
         0.945701; 0.093143; 0.311408;,
         0.974476; 0.095977; 0.202940;,
         0.992285; 0.097732; 0.076286;,
         0.536174;-0.052808; 0.842454;,
         0.625426;-0.061599; 0.777848;,
         0.699930;-0.068937; 0.710876;,
         0.763449;-0.075193; 0.641476;,
         0.818575;-0.080622; 0.568713;,
         0.866956;-0.085388; 0.491015;,
         0.909382;-0.089566; 0.406204;,
         0.945701;-0.093143; 0.311408;,
         0.974476;-0.095977; 0.202940;,
         0.992285;-0.097731; 0.076286;,
         0.515569;-0.156396; 0.842454;,
         0.601391;-0.182430; 0.777849;,
         0.673032;-0.204162; 0.710876;,
         0.734110;-0.222690; 0.641476;,
         0.787118;-0.238770; 0.568713;,
         0.833640;-0.252882; 0.491015;,
         0.874435;-0.265257; 0.406204;,
         0.909358;-0.275851; 0.311407;,
         0.937028;-0.284244; 0.202940;,
         0.954152;-0.289439; 0.076286;,
         0.475152;-0.253974; 0.842454;,
         0.554245;-0.296250; 0.777849;,
         0.620270;-0.331541; 0.710876;,
         0.676560;-0.361629; 0.641476;,
         0.725412;-0.387741; 0.568713;,
         0.768287;-0.410658; 0.491015;,
         0.805884;-0.430754; 0.406204;,
         0.838069;-0.447957; 0.311407;,
         0.863570;-0.461587; 0.202940;,
         0.879351;-0.470023; 0.076286;,
         0.416474;-0.341791; 0.842454;,
         0.485800;-0.398686; 0.777849;,
         0.543671;-0.446180; 0.710876;,
         0.593010;-0.486670; 0.641476;,
         0.635829;-0.521811; 0.568713;,
         0.673409;-0.552652; 0.491015;,
         0.706363;-0.579698; 0.406204;,
         0.734574;-0.602849; 0.311407;,
         0.756925;-0.621192; 0.202940;,
         0.770758;-0.632545; 0.076286;,
         0.341791;-0.416474; 0.842454;,
         0.398686;-0.485800; 0.777849;,
         0.446179;-0.543671; 0.710876;,
         0.486671;-0.593010; 0.641476;,
         0.521811;-0.635829; 0.568713;,
         0.552653;-0.673409; 0.491015;,
         0.579698;-0.706363; 0.406204;,
         0.602849;-0.734574; 0.311407;,
         0.621192;-0.756925; 0.202940;,
         0.632545;-0.770758; 0.076287;,
         0.253974;-0.475151; 0.842454;,
         0.296251;-0.554245; 0.777849;,
         0.331542;-0.620270; 0.710876;,
         0.361629;-0.676560; 0.641476;,
         0.387741;-0.725412; 0.568713;,
         0.410658;-0.768287; 0.491015;,
         0.430755;-0.805884; 0.406204;,
         0.447958;-0.838069; 0.311407;,
         0.461588;-0.863569; 0.202940;,
         0.470023;-0.879351; 0.076287;,
         0.156396;-0.515570; 0.842454;,
         0.182429;-0.601391; 0.777849;,
         0.204161;-0.673033; 0.710876;,
         0.222689;-0.734110; 0.641476;,
         0.238769;-0.787118; 0.568713;,
         0.252881;-0.833640; 0.491015;,
         0.265256;-0.874436; 0.406204;,
         0.275850;-0.909358; 0.311408;,
         0.284244;-0.937028; 0.202940;,
         0.289438;-0.954152; 0.076286;,
         0.052809;-0.536174; 0.842454;,
         0.061599;-0.625426; 0.777849;,
         0.068938;-0.699930; 0.710877;,
         0.075194;-0.763449; 0.641476;,
         0.080623;-0.818575; 0.568713;,
         0.085388;-0.866956; 0.491015;,
         0.089567;-0.909382; 0.406204;,
         0.093144;-0.945701; 0.311408;,
         0.095978;-0.974476; 0.202940;,
         0.097731;-0.992285; 0.076286;,
        -0.052809;-0.536174; 0.842454;,
        -0.061600;-0.625425; 0.777849;,
        -0.068938;-0.699930; 0.710876;,
        -0.075194;-0.763449; 0.641476;,
        -0.080624;-0.818575; 0.568713;,
        -0.085389;-0.866956; 0.491015;,
        -0.089567;-0.909382; 0.406204;,
        -0.093144;-0.945700; 0.311408;,
        -0.095978;-0.974476; 0.202940;,
        -0.097732;-0.992285; 0.076286;,
        -0.156396;-0.515569; 0.842454;,
        -0.182430;-0.601391; 0.777849;,
        -0.204162;-0.673032; 0.710876;,
        -0.222690;-0.734110; 0.641476;,
        -0.238770;-0.787118; 0.568713;,
        -0.252882;-0.833640; 0.491015;,
        -0.265257;-0.874435; 0.406204;,
        -0.275851;-0.909358; 0.311408;,
        -0.284245;-0.937028; 0.202940;,
        -0.289439;-0.954152; 0.076286;,
        -0.253974;-0.475151; 0.842454;,
        -0.296250;-0.554245; 0.777849;,
        -0.331541;-0.620270; 0.710876;,
        -0.361629;-0.676560; 0.641476;,
        -0.387741;-0.725412; 0.568713;,
        -0.410658;-0.768287; 0.491015;,
        -0.430754;-0.805884; 0.406204;,
        -0.447958;-0.838069; 0.311408;,
        -0.461588;-0.863570; 0.202940;,
        -0.470023;-0.879351; 0.076286;,
        -0.341792;-0.416473; 0.842454;,
        -0.398686;-0.485799; 0.777849;,
        -0.446180;-0.543671; 0.710876;,
        -0.486671;-0.593009; 0.641476;,
        -0.521812;-0.635828; 0.568713;,
        -0.552653;-0.673409; 0.491015;,
        -0.579698;-0.706363; 0.406204;,
        -0.602849;-0.734573; 0.311408;,
        -0.621193;-0.756925; 0.202940;,
        -0.632545;-0.770758; 0.076286;,
        -0.416474;-0.341791; 0.842454;,
        -0.485800;-0.398685; 0.777849;,
        -0.543672;-0.446179; 0.710876;,
        -0.593010;-0.486670; 0.641476;,
        -0.635829;-0.521811; 0.568713;,
        -0.673410;-0.552652; 0.491015;,
        -0.706364;-0.579697; 0.406204;,
        -0.734574;-0.602848; 0.311408;,
        -0.756926;-0.621192; 0.202940;,
        -0.770758;-0.632544; 0.076286;,
        -0.475152;-0.253973; 0.842454;,
        -0.554245;-0.296250; 0.777848;,
        -0.620270;-0.331541; 0.710877;,
        -0.676560;-0.361628; 0.641476;,
        -0.725412;-0.387740; 0.568713;,
        -0.768287;-0.410657; 0.491015;,
        -0.805885;-0.430753; 0.406204;,
        -0.838069;-0.447956; 0.311408;,
        -0.863570;-0.461587; 0.202940;,
        -0.879352;-0.470022; 0.076286;,
        -0.515569;-0.156396; 0.842454;,
        -0.601391;-0.182430; 0.777849;,
        -0.673033;-0.204162; 0.710876;,
        -0.734110;-0.222690; 0.641476;,
        -0.787118;-0.238769; 0.568713;,
        -0.833640;-0.252881; 0.491015;,
        -0.874436;-0.265257; 0.406204;,
        -0.909358;-0.275850; 0.311408;,
        -0.937028;-0.284244; 0.202940;,
        -0.954152;-0.289438; 0.076286;,
        -0.536174;-0.052808; 0.842454;,
        -0.625425;-0.061599; 0.777849;,
        -0.699931;-0.068937; 0.710876;,
        -0.763449;-0.075193; 0.641476;,
        -0.818575;-0.080622; 0.568713;,
        -0.866956;-0.085387; 0.491015;,
        -0.909383;-0.089566; 0.406204;,
        -0.945701;-0.093143; 0.311408;,
        -0.974476;-0.095977; 0.202940;,
        -0.992285;-0.097731; 0.076286;,
        -0.536174; 0.052809; 0.842454;,
        -0.625425; 0.061600; 0.777849;,
        -0.699931; 0.068938; 0.710876;,
        -0.763449; 0.075194; 0.641476;,
        -0.818575; 0.080624; 0.568713;,
        -0.866956; 0.085389; 0.491015;,
        -0.909382; 0.089568; 0.406204;,
        -0.945700; 0.093145; 0.311408;,
        -0.974476; 0.095979; 0.202939;,
        -0.992285; 0.097733; 0.076286;,
        -0.515569; 0.156397; 0.842454;,
        -0.601390; 0.182430; 0.777849;,
        -0.673032; 0.204163; 0.710876;,
        -0.734110; 0.222690; 0.641476;,
        -0.787118; 0.238770; 0.568713;,
        -0.833639; 0.252883; 0.491015;,
        -0.874435; 0.265258; 0.406204;,
        -0.909358; 0.275852; 0.311407;,
        -0.937027; 0.284245; 0.202940;,
        -0.954152; 0.289440; 0.076286;,
        -0.475151; 0.253974; 0.842454;,
        -0.554244; 0.296251; 0.777848;,
        -0.620270; 0.331543; 0.710876;,
        -0.676559; 0.361630; 0.641476;,
        -0.725411; 0.387742; 0.568713;,
        -0.768286; 0.410659; 0.491015;,
        -0.805884; 0.430755; 0.406204;,
        -0.838068; 0.447959; 0.311407;,
        -0.863569; 0.461589; 0.202940;,
        -0.879351; 0.470024; 0.076286;,
        -0.416474; 0.341792; 0.842454;,
        -0.485799; 0.398686; 0.777849;,
        -0.543671; 0.446180; 0.710876;,
        -0.593009; 0.486671; 0.641476;,
        -0.635828; 0.521812; 0.568713;,
        -0.673408; 0.552653; 0.491015;,
        -0.706363; 0.579698; 0.406204;,
        -0.734573; 0.602850; 0.311407;,
        -0.756924; 0.621193; 0.202940;,
        -0.770757; 0.632546; 0.076286;,
        -0.341791; 0.416475; 0.842453;,
        -0.398684; 0.485800; 0.777849;,
        -0.446179; 0.543673; 0.710876;,
        -0.486670; 0.593010; 0.641476;,
        -0.521810; 0.635830; 0.568713;,
        -0.552651; 0.673410; 0.491015;,
        -0.579696; 0.706364; 0.406204;,
        -0.602848; 0.734575; 0.311407;,
        -0.621191; 0.756926; 0.202940;,
        -0.632544; 0.770759; 0.076286;,
        -0.253974; 0.475152; 0.842453;,
        -0.296249; 0.554245; 0.777849;,
        -0.331541; 0.620271; 0.710876;,
        -0.361628; 0.676560; 0.641476;,
        -0.387740; 0.725413; 0.568713;,
        -0.410657; 0.768287; 0.491015;,
        -0.430753; 0.805885; 0.406204;,
        -0.447956; 0.838070; 0.311407;,
        -0.461587; 0.863570; 0.202940;,
        -0.470022; 0.879352; 0.076286;,
        -0.052808; 0.536175; 0.842453;,
        -0.061599; 0.625425; 0.777849;,
        -0.068937; 0.699931; 0.710876;,
        -0.075193; 0.763449; 0.641476;,
        -0.080623; 0.818575; 0.568713;,
        -0.085388; 0.866956; 0.491015;,
        -0.089566; 0.909382; 0.406204;,
        -0.093143; 0.945701; 0.311408;,
        -0.095977; 0.974476; 0.202939;,
        -0.097731; 0.992285; 0.076287;,
        -0.156396; 0.515570; 0.842453;,
        -0.182429; 0.601391; 0.777849;,
        -0.204161; 0.673033; 0.710876;,
        -0.222688; 0.734111; 0.641476;,
        -0.238768; 0.787119; 0.568713;,
        -0.252880; 0.833640; 0.491015;,
        -0.265255; 0.874436; 0.406204;,
        -0.275849; 0.909358; 0.311408;,
        -0.284242; 0.937028; 0.202940;,
        -0.289437; 0.954152; 0.076286;,
         0.023024; 0.233768; 0.972020;,
        -0.004565; 0.046348; 0.998915;,
         0.021954; 0.041073; 0.998915;,
         0.029545; 0.036001; 0.998915;,
         0.036001; 0.029545; 0.998915;,
         0.041073; 0.021954; 0.998915;,
         0.044567; 0.013519; 0.998915;,
         0.046348; 0.004565; 0.998915;,
         0.046348;-0.004565; 0.998915;,
         0.044567;-0.013519; 0.998915;,
         0.041073;-0.021954; 0.998915;,
         0.036001;-0.029545; 0.998915;,
         0.029545;-0.036001; 0.998915;,
         0.021954;-0.041073; 0.998915;,
         0.013519;-0.044567; 0.998915;,
         0.004565;-0.046348; 0.998915;,
        -0.004565;-0.046348; 0.998915;,
        -0.013519;-0.044567; 0.998915;,
        -0.021954;-0.041073; 0.998915;,
        -0.029545;-0.036001; 0.998915;,
        -0.036001;-0.029545; 0.998915;,
        -0.041073;-0.021954; 0.998915;,
        -0.044567;-0.013519; 0.998915;,
        -0.046348;-0.004565; 0.998915;,
        -0.046348; 0.004565; 0.998915;,
        -0.044567; 0.013520; 0.998915;,
        -0.041073; 0.021954; 0.998915;,
        -0.036001; 0.029545; 0.998915;,
        -0.029545; 0.036001; 0.998915;,
        -0.021954; 0.041073; 0.998915;,
        -0.013519; 0.044567; 0.998915;,
         0.013519; 0.044567; 0.998915;,
         0.098017; 0.995185; 0.000000;,
        -0.098017; 0.995185; 0.000000;,
         0.471397; 0.881921; 0.000000;,
         0.634393; 0.773010; 0.000000;,
         0.773010; 0.634393; 0.000000;,
         0.881921; 0.471397; 0.000000;,
         0.956940; 0.290285; 0.000000;,
         0.995185; 0.098017; 0.000000;,
         0.995185;-0.098017; 0.000000;,
         0.956940;-0.290285; 0.000000;,
         0.881921;-0.471396; 0.000000;,
         0.773010;-0.634393; 0.000000;,
         0.634393;-0.773010; 0.000000;,
         0.471397;-0.881921; 0.000000;,
         0.290284;-0.956940; 0.000000;,
         0.098017;-0.995185; 0.000000;,
        -0.098018;-0.995185; 0.000000;,
        -0.290285;-0.956940; 0.000000;,
        -0.471397;-0.881921; 0.000000;,
        -0.634394;-0.773010; 0.000000;,
        -0.773011;-0.634393; 0.000000;,
        -0.881922;-0.471396; 0.000000;,
        -0.956941;-0.290284; 0.000000;,
        -0.995185;-0.098016; 0.000000;,
        -0.995185; 0.098018; 0.000000;,
        -0.956940; 0.290286; 0.000000;,
        -0.881921; 0.471398; 0.000000;,
        -0.773010; 0.634394; 0.000000;,
        -0.634392; 0.773011; 0.000000;,
        -0.471395; 0.881922; 0.000000;,
        -0.290283; 0.956941; 0.000000;,
         0.290285; 0.956940; 0.000000;,
         0.098017; 0.995185; 0.000000;,
        -0.098016; 0.995185; 0.000000;,
         0.471397; 0.881921; 0.000000;,
         0.634393; 0.773011; 0.000000;,
         0.773011; 0.634393; 0.000000;,
         0.881921; 0.471397; 0.000000;,
         0.956940; 0.290285; 0.000000;,
         0.995185; 0.098018; 0.000000;,
         0.995185;-0.098017; 0.000000;,
         0.956940;-0.290285; 0.000000;,
         0.881921;-0.471397; 0.000000;,
         0.773011;-0.634393; 0.000000;,
         0.634394;-0.773010; 0.000000;,
         0.471396;-0.881921; 0.000000;,
         0.290284;-0.956940; 0.000000;,
         0.098017;-0.995185; 0.000000;,
        -0.098017;-0.995185; 0.000000;,
        -0.290285;-0.956940; 0.000000;,
        -0.471397;-0.881921; 0.000000;,
        -0.634394;-0.773010; 0.000000;,
        -0.773011;-0.634393; 0.000000;,
        -0.881922;-0.471396; 0.000000;,
        -0.956941;-0.290284; 0.000000;,
        -0.995185;-0.098017; 0.000000;,
        -0.995185; 0.098019; 0.000000;,
        -0.956940; 0.290286; 0.000000;,
        -0.881921; 0.471397; 0.000000;,
        -0.773009; 0.634395; 0.000000;,
        -0.634392; 0.773011; 0.000000;,
        -0.471396; 0.881922; 0.000000;,
        -0.290283; 0.956941; 0.000000;,
         0.290285; 0.956940; 0.000000;,
         0.002195; 0.022284;-0.999749;,
        -0.002195; 0.022284;-0.999749;,
         0.010556; 0.019748;-0.999749;,
         0.014205; 0.017309;-0.999749;,
         0.017309; 0.014205;-0.999749;,
         0.019748; 0.010556;-0.999749;,
         0.021428; 0.006500;-0.999749;,
         0.022284; 0.002195;-0.999749;,
         0.022284;-0.002195;-0.999749;,
         0.021428;-0.006500;-0.999749;,
         0.019748;-0.010556;-0.999749;,
         0.017309;-0.014205;-0.999749;,
         0.014205;-0.017309;-0.999749;,
         0.010556;-0.019748;-0.999749;,
         0.006500;-0.021428;-0.999749;,
         0.002195;-0.022284;-0.999749;,
        -0.002195;-0.022284;-0.999749;,
        -0.006500;-0.021428;-0.999749;,
        -0.010556;-0.019748;-0.999749;,
        -0.014205;-0.017309;-0.999749;,
        -0.017309;-0.014205;-0.999749;,
        -0.019748;-0.010556;-0.999749;,
        -0.021428;-0.006500;-0.999749;,
        -0.022284;-0.002195;-0.999749;,
        -0.022284; 0.002195;-0.999749;,
        -0.021428; 0.006500;-0.999749;,
        -0.019748; 0.010556;-0.999749;,
        -0.017309; 0.014205;-0.999749;,
        -0.014205; 0.017309;-0.999749;,
        -0.010556; 0.019748;-0.999749;,
        -0.006500; 0.021428;-0.999749;,
         0.006500; 0.021428;-0.999749;,
         0.098017; 0.995185; 0.000000;,
        -0.098016; 0.995185; 0.000000;,
         0.471397; 0.881921; 0.000000;,
         0.634393; 0.773011; 0.000000;,
         0.773011; 0.634393; 0.000000;,
         0.881921; 0.471397; 0.000000;,
         0.956940; 0.290285; 0.000000;,
         0.995185; 0.098018; 0.000000;,
         0.995185;-0.098017; 0.000000;,
         0.956940;-0.290285; 0.000000;,
         0.881921;-0.471397; 0.000000;,
         0.773011;-0.634393; 0.000000;,
         0.634393;-0.773010; 0.000000;,
         0.471396;-0.881921; 0.000000;,
         0.290284;-0.956941; 0.000000;,
         0.098017;-0.995185; 0.000000;,
        -0.098018;-0.995185; 0.000000;,
        -0.290285;-0.956940; 0.000000;,
        -0.471397;-0.881921; 0.000000;,
        -0.634394;-0.773010; 0.000000;,
        -0.773011;-0.634393; 0.000000;,
        -0.881922;-0.471396; 0.000000;,
        -0.956941;-0.290284; 0.000000;,
        -0.995185;-0.098017; 0.000000;,
        -0.995185; 0.098019; 0.000000;,
        -0.956940; 0.290286; 0.000000;,
        -0.881921; 0.471397; 0.000000;,
        -0.773009; 0.634395; 0.000000;,
        -0.634392; 0.773011; 0.000000;,
        -0.471396; 0.881922; 0.000000;,
        -0.290283; 0.956941; 0.000000;,
         0.290285; 0.956940; 0.000000;,
         0.007382;-0.999973; 0.000000;,
         0.999996; 0.003010;-0.000000;,
        -0.011001; 0.999939; 0.000000;,
         0.000697;-0.999511;-0.031272;,
        -0.005371;-0.999986;-0.000000;,
        -0.999998;-0.002041;-0.000000;,
        -0.999965;-0.000187; 0.008396;,
         0.003711; 0.999993;-0.000000;,
         0.000316; 0.999900; 0.014157;,
        -0.999765;-0.021659; 0.000000;,
        -0.997125;-0.001688;-0.075759;,
         0.999427; 0.033841;-0.000000;;
        557;
        32;0,0,0,0,0,0,0,0,0,0,0,0,0,0,0,0,0,0,0,0,0,0,0,0,0,0,0,0,0,0,0,0;,
        3;1,1,1;,
        3;2,2,2;,
        3;3,3,3;,
        3;4,4,4;,
        3;5,5,5;,
        3;6,6,6;,
        3;7,7,7;,
        3;8,8,8;,
        3;9,9,9;,
        3;10,10,10;,
        3;11,11,11;,
        3;12,12,12;,
        3;13,13,13;,
        3;14,14,14;,
        3;15,15,15;,
        3;16,16,16;,
        3;17,17,17;,
        3;18,18,18;,
        3;19,19,19;,
        3;20,20,20;,
        3;21,21,21;,
        3;22,22,22;,
        3;23,23,23;,
        3;24,24,24;,
        3;25,25,25;,
        3;26,26,26;,
        3;27,27,27;,
        3;28,28,28;,
        3;29,29,29;,
        3;30,30,30;,
        4;31,31,31,31;,
        3;32,32,32;,
        4;33,33,33,33;,
        4;34,34,34,34;,
        4;35,35,35,35;,
        4;36,36,36,36;,
        4;37,37,37,37;,
        4;38,38,38,38;,
        4;39,39,39,39;,
        4;40,40,40,40;,
        4;41,41,41,41;,
        4;42,42,42,42;,
        4;43,43,43,43;,
        4;44,44,44,44;,
        4;45,45,45,45;,
        4;46,46,46,46;,
        4;47,47,47,47;,
        4;48,48,48,48;,
        4;49,49,49,49;,
        4;50,50,50,50;,
        4;51,51,51,51;,
        4;52,52,52,52;,
        4;53,53,53,53;,
        4;54,54,54,54;,
        4;55,55,55,55;,
        4;56,56,56,56;,
        4;57,57,57,57;,
        4;58,58,58,58;,
        4;59,59,59,59;,
        4;60,60,60,60;,
        4;61,61,61,61;,
        4;62,62,62,62;,
        4;63,63,63,63;,
        4;64,64,64,64;,
        4;65,65,65,65;,
        4;66,66,66,66;,
        4;67,67,67,67;,
        4;68,68,68,68;,
        4;69,69,69,69;,
        4;70,70,70,70;,
        4;71,71,71,71;,
        4;72,72,72,72;,
        4;73,73,73,73;,
        4;74,74,74,74;,
        4;75,75,75,75;,
        4;76,76,76,76;,
        4;77,77,77,77;,
        4;78,78,78,78;,
        4;79,79,79,79;,
        4;80,80,80,80;,
        4;81,81,81,81;,
        4;82,82,82,82;,
        4;83,83,83,83;,
        4;84,84,84,84;,
        4;85,85,85,85;,
        4;86,86,86,86;,
        4;87,87,87,87;,
        4;88,88,88,88;,
        4;89,89,89,89;,
        4;90,90,90,90;,
        4;91,91,91,91;,
        4;92,92,92,92;,
        4;93,93,93,93;,
        4;94,94,94,94;,
        4;95,95,95,95;,
        4;96,96,96,96;,
        4;97,97,97,97;,
        4;98,98,98,98;,
        4;99,99,99,99;,
        4;100,100,100,100;,
        4;101,101,101,101;,
        4;102,102,102,102;,
        4;103,103,103,103;,
        4;104,104,104,104;,
        4;105,105,105,105;,
        4;106,106,106,106;,
        4;107,107,107,107;,
        4;108,108,108,108;,
        4;109,109,109,109;,
        4;110,110,110,110;,
        4;111,111,111,111;,
        4;112,112,112,112;,
        4;113,113,113,113;,
        4;114,114,114,114;,
        4;115,115,115,115;,
        4;116,116,116,116;,
        4;117,117,117,117;,
        4;118,118,118,118;,
        4;119,119,119,119;,
        4;120,120,120,120;,
        4;121,121,121,121;,
        4;122,122,122,122;,
        4;123,123,123,123;,
        4;124,124,124,124;,
        4;125,125,125,125;,
        4;126,126,126,126;,
        4;127,127,127,127;,
        4;128,128,128,128;,
        4;129,129,129,129;,
        4;130,130,130,130;,
        4;131,131,131,131;,
        4;132,132,132,132;,
        4;133,133,133,133;,
        4;134,134,134,134;,
        4;135,135,135,135;,
        4;136,136,136,136;,
        4;137,137,137,137;,
        4;138,138,138,138;,
        4;139,139,139,139;,
        4;140,140,140,140;,
        4;141,141,141,141;,
        4;142,142,142,142;,
        4;143,143,143,143;,
        4;144,144,144,144;,
        4;145,145,145,145;,
        4;146,146,146,146;,
        4;147,147,147,147;,
        4;148,148,148,148;,
        4;149,149,149,149;,
        4;150,150,150,150;,
        4;151,151,151,151;,
        4;152,152,152,152;,
        4;153,153,153,153;,
        4;154,154,154,154;,
        4;155,155,155,155;,
        4;156,156,156,156;,
        4;157,157,157,157;,
        4;158,158,158,158;,
        4;159,159,159,159;,
        4;160,160,160,160;,
        4;161,161,161,161;,
        4;162,162,162,162;,
        4;163,163,163,163;,
        4;164,164,164,164;,
        4;165,165,165,165;,
        4;166,166,166,166;,
        4;167,167,167,167;,
        4;168,168,168,168;,
        4;169,169,169,169;,
        4;170,170,170,170;,
        4;171,171,171,171;,
        4;172,172,172,172;,
        4;173,173,173,173;,
        4;174,174,174,174;,
        4;175,175,175,175;,
        4;176,176,176,176;,
        4;177,177,177,177;,
        4;178,178,178,178;,
        4;179,179,179,179;,
        4;180,180,180,180;,
        4;181,181,181,181;,
        4;182,182,182,182;,
        4;183,183,183,183;,
        4;184,184,184,184;,
        4;185,185,185,185;,
        4;186,186,186,186;,
        4;187,187,187,187;,
        4;188,188,188,188;,
        4;189,189,189,189;,
        4;190,190,190,190;,
        4;191,191,191,191;,
        4;192,192,192,192;,
        4;193,193,193,193;,
        4;194,194,194,194;,
        4;195,195,195,195;,
        4;196,196,196,196;,
        4;197,197,197,197;,
        4;198,198,198,198;,
        4;199,199,199,199;,
        4;200,200,200,200;,
        4;201,201,201,201;,
        4;202,202,202,202;,
        4;203,203,203,203;,
        4;204,204,204,204;,
        4;205,205,205,205;,
        4;206,206,206,206;,
        4;207,207,207,207;,
        4;208,208,208,208;,
        4;209,209,209,209;,
        4;210,210,210,210;,
        4;211,211,211,211;,
        4;212,212,212,212;,
        4;213,213,213,213;,
        4;214,214,214,214;,
        4;215,215,215,215;,
        4;216,216,216,216;,
        4;217,217,217,217;,
        4;218,218,218,218;,
        4;219,219,219,219;,
        4;220,220,220,220;,
        4;221,221,221,221;,
        4;222,222,222,222;,
        4;223,223,223,223;,
        4;224,224,224,224;,
        4;225,225,225,225;,
        4;226,226,226,226;,
        4;227,227,227,227;,
        4;228,228,228,228;,
        4;229,229,229,229;,
        4;230,230,230,230;,
        4;231,231,231,231;,
        4;232,232,232,232;,
        4;233,233,233,233;,
        4;234,234,234,234;,
        4;235,235,235,235;,
        4;236,236,236,236;,
        4;237,237,237,237;,
        4;238,238,238,238;,
        4;239,239,239,239;,
        4;240,240,240,240;,
        4;241,241,241,241;,
        4;242,242,242,242;,
        4;243,243,243,243;,
        4;244,244,244,244;,
        4;245,245,245,245;,
        4;246,246,246,246;,
        4;247,247,247,247;,
        4;248,248,248,248;,
        4;249,249,249,249;,
        4;250,250,250,250;,
        4;251,251,251,251;,
        4;252,252,252,252;,
        4;253,253,253,253;,
        4;254,254,254,254;,
        4;255,255,255,255;,
        4;256,256,256,256;,
        4;257,257,257,257;,
        4;258,258,258,258;,
        4;259,259,259,259;,
        4;260,260,260,260;,
        4;261,261,261,261;,
        4;262,262,262,262;,
        4;263,263,263,263;,
        4;264,264,264,264;,
        4;265,265,265,265;,
        4;266,266,266,266;,
        4;267,267,267,267;,
        4;268,268,268,268;,
        4;269,269,269,269;,
        4;270,270,270,270;,
        4;271,271,271,271;,
        4;272,272,272,272;,
        4;273,273,273,273;,
        4;274,274,274,274;,
        4;275,275,275,275;,
        4;276,276,276,276;,
        4;277,277,277,277;,
        4;278,278,278,278;,
        4;279,279,279,279;,
        4;280,280,280,280;,
        4;281,281,281,281;,
        4;282,282,282,282;,
        4;283,283,283,283;,
        4;284,284,284,284;,
        4;285,285,285,285;,
        4;286,286,286,286;,
        4;287,287,287,287;,
        4;288,288,288,288;,
        4;289,289,289,289;,
        4;290,290,290,290;,
        4;291,291,291,291;,
        4;292,292,292,292;,
        4;293,293,293,293;,
        4;294,294,294,294;,
        4;295,295,295,295;,
        4;296,296,296,296;,
        4;297,297,297,297;,
        4;298,298,298,298;,
        4;299,299,299,299;,
        4;300,300,300,300;,
        4;301,301,301,301;,
        4;302,302,302,302;,
        4;303,303,303,303;,
        4;304,304,304,304;,
        4;305,305,305,305;,
        4;306,306,306,306;,
        4;307,307,307,307;,
        4;308,308,308,308;,
        4;309,309,309,309;,
        4;310,310,310,310;,
        4;311,311,311,311;,
        4;312,312,312,312;,
        4;313,313,313,313;,
        4;314,314,314,314;,
        4;315,315,315,315;,
        4;316,316,316,316;,
        4;317,317,317,317;,
        4;318,318,318,318;,
        4;319,319,319,319;,
        4;320,320,320,320;,
        4;321,321,321,321;,
        4;322,322,322,322;,
        4;323,323,323,323;,
        4;324,324,324,324;,
        4;325,325,325,325;,
        4;326,326,326,326;,
        4;327,327,327,327;,
        4;328,328,328,328;,
        4;329,329,329,329;,
        4;330,330,330,330;,
        4;331,331,331,331;,
        4;332,332,332,332;,
        4;333,333,333,333;,
        4;334,334,334,334;,
        4;335,335,335,335;,
        4;336,336,336,336;,
        4;337,337,337,337;,
        4;338,338,338,338;,
        4;339,339,339,339;,
        4;340,340,340,340;,
        4;341,341,341,341;,
        4;342,342,342,342;,
        4;343,343,343,343;,
        4;344,344,344,344;,
        4;345,345,345,345;,
        4;346,346,346,346;,
        4;347,347,347,347;,
        4;348,348,348,348;,
        4;349,349,349,349;,
        4;350,350,350,350;,
        4;351,351,351,351;,
        4;352,352,352,352;,
        4;353,353,353,353;,
        4;354,354,354,354;,
        4;355,355,355,355;,
        4;356,356,356,356;,
        4;357,357,357,357;,
        4;358,358,358,358;,
        4;359,359,359,359;,
        4;360,360,360,360;,
        4;361,361,361,361;,
        4;362,362,362,362;,
        4;363,363,363,363;,
        4;364,364,364,364;,
        4;365,365,365,365;,
        4;366,366,366,366;,
        4;367,367,367,367;,
        4;368,368,368,368;,
        4;369,369,369,369;,
        4;370,370,370,370;,
        4;371,371,371,371;,
        4;372,372,372,372;,
        4;373,373,373,373;,
        4;374,374,374,374;,
        4;375,375,375,375;,
        4;376,376,376,376;,
        4;377,377,377,377;,
        4;378,378,378,378;,
        4;379,379,379,379;,
        4;380,380,380,380;,
        4;381,381,381,381;,
        4;382,382,382,382;,
        4;383,383,383,383;,
        4;384,384,384,384;,
        3;385,385,385;,
        4;386,386,386,386;,
        4;387,387,387,387;,
        4;388,388,388,388;,
        4;389,389,389,389;,
        4;390,390,390,390;,
        4;391,391,391,391;,
        4;392,392,392,392;,
        4;393,393,393,393;,
        4;394,394,394,394;,
        4;395,395,395,395;,
        4;396,396,396,396;,
        4;397,397,397,397;,
        4;398,398,398,398;,
        4;399,399,399,399;,
        4;400,400,400,400;,
        4;401,401,401,401;,
        4;402,402,402,402;,
        4;403,403,403,403;,
        4;404,404,404,404;,
        4;405,405,405,405;,
        4;406,406,406,406;,
        4;407,407,407,407;,
        4;408,408,408,408;,
        4;409,409,409,409;,
        4;410,410,410,410;,
        4;411,411,411,411;,
        4;412,412,412,412;,
        4;413,413,413,413;,
        4;414,414,414,414;,
        4;415,415,415,415;,
        4;416,416,416,416;,
        4;417,417,417,417;,
        4;418,418,418,418;,
        4;419,419,419,419;,
        4;420,420,420,420;,
        4;421,421,421,421;,
        4;422,422,422,422;,
        4;423,423,423,423;,
        4;424,424,424,424;,
        4;425,425,425,425;,
        4;426,426,426,426;,
        4;427,427,427,427;,
        4;428,428,428,428;,
        4;429,429,429,429;,
        4;430,430,430,430;,
        4;431,431,431,431;,
        4;432,432,432,432;,
        4;433,433,433,433;,
        4;434,434,434,434;,
        4;435,435,435,435;,
        4;436,436,436,436;,
        4;437,437,437,437;,
        4;438,438,438,438;,
        4;439,439,439,439;,
        4;440,440,440,440;,
        4;441,441,441,441;,
        4;442,442,442,442;,
        4;443,443,443,443;,
        4;444,444,444,444;,
        4;445,445,445,445;,
        4;446,446,446,446;,
        4;447,447,447,447;,
        4;448,448,448,448;,
        4;449,449,449,449;,
        4;450,450,450,450;,
        4;451,451,451,451;,
        4;452,452,452,452;,
        4;453,453,453,453;,
        4;454,454,454,454;,
        4;455,455,455,455;,
        4;456,456,456,456;,
        4;457,457,457,457;,
        4;458,458,458,458;,
        4;459,459,459,459;,
        4;460,460,460,460;,
        4;461,461,461,461;,
        4;462,462,462,462;,
        4;463,463,463,463;,
        4;464,464,464,464;,
        4;465,465,465,465;,
        4;466,466,466,466;,
        4;467,467,467,467;,
        4;468,468,468,468;,
        4;469,469,469,469;,
        4;470,470,470,470;,
        4;471,471,471,471;,
        4;472,472,472,472;,
        4;473,473,473,473;,
        4;474,474,474,474;,
        4;475,475,475,475;,
        4;476,476,476,476;,
        4;477,477,477,477;,
        4;478,478,478,478;,
        4;479,479,479,479;,
        4;480,480,480,480;,
        4;481,481,481,481;,
        4;482,482,482,482;,
        4;483,483,483,483;,
        4;484,484,484,484;,
        4;485,485,485,485;,
        4;486,486,486,486;,
        4;487,487,487,487;,
        4;488,488,488,488;,
        4;489,489,489,489;,
        4;490,490,490,490;,
        4;491,491,491,491;,
        4;492,492,492,492;,
        4;493,493,493,493;,
        4;494,494,494,494;,
        4;495,495,495,495;,
        4;496,496,496,496;,
        4;497,497,497,497;,
        4;498,498,498,498;,
        4;499,499,499,499;,
        4;500,500,500,500;,
        4;501,501,501,501;,
        4;502,502,502,502;,
        4;503,503,503,503;,
        4;504,504,504,504;,
        4;505,505,505,505;,
        4;506,506,506,506;,
        4;507,507,507,507;,
        4;508,508,508,508;,
        4;509,509,509,509;,
        4;510,510,510,510;,
        4;511,511,511,511;,
        4;512,512,512,512;,
        4;513,513,513,513;,
        4;514,514,514,514;,
        4;515,515,515,515;,
        4;516,516,516,516;,
        4;517,517,517,517;,
        4;518,518,518,518;,
        4;519,519,519,519;,
        4;520,520,520,520;,
        4;521,521,521,521;,
        4;522,522,522,522;,
        4;523,523,523,523;,
        4;524,524,524,524;,
        4;525,525,525,525;,
        4;526,526,526,526;,
        4;527,527,527,527;,
        4;528,528,528,528;,
        4;529,529,529,529;,
        4;530,530,530,530;,
        4;531,531,531,531;,
        4;532,532,532,532;,
        4;533,533,533,533;,
        4;534,534,534,534;,
        4;535,535,535,535;,
        4;536,536,536,536;,
        4;537,537,537,537;,
        4;538,538,538,538;,
        4;539,539,539,539;,
        4;540,540,540,540;,
        4;541,541,541,541;,
        4;542,542,542,542;,
        4;543,543,543,543;,
        4;544,544,544,544;,
        3;545,545,545;,
        3;546,546,546;,
        3;547,547,547;,
        3;548,548,548;,
        3;549,549,549;,
        3;550,550,550;,
        3;551,551,551;,
        3;552,552,552;,
        3;553,553,553;,
        3;554,554,554;,
        3;555,555,555;,
        3;556,556,556;;
      } // End of Cylinder normals
      MeshMaterialList { // Cylinder material list
        1;
        557;
        0,
        0,
        0,
        0,
        0,
        0,
        0,
        0,
        0,
        0,
        0,
        0,
        0,
        0,
        0,
        0,
        0,
        0,
        0,
        0,
        0,
        0,
        0,
        0,
        0,
        0,
        0,
        0,
        0,
        0,
        0,
        0,
        0,
        0,
        0,
        0,
        0,
        0,
        0,
        0,
        0,
        0,
        0,
        0,
        0,
        0,
        0,
        0,
        0,
        0,
        0,
        0,
        0,
        0,
        0,
        0,
        0,
        0,
        0,
        0,
        0,
        0,
        0,
        0,
        0,
        0,
        0,
        0,
        0,
        0,
        0,
        0,
        0,
        0,
        0,
        0,
        0,
        0,
        0,
        0,
        0,
        0,
        0,
        0,
        0,
        0,
        0,
        0,
        0,
        0,
        0,
        0,
        0,
        0,
        0,
        0,
        0,
        0,
        0,
        0,
        0,
        0,
        0,
        0,
        0,
        0,
        0,
        0,
        0,
        0,
        0,
        0,
        0,
        0,
        0,
        0,
        0,
        0,
        0,
        0,
        0,
        0,
        0,
        0,
        0,
        0,
        0,
        0,
        0,
        0,
        0,
        0,
        0,
        0,
        0,
        0,
        0,
        0,
        0,
        0,
        0,
        0,
        0,
        0,
        0,
        0,
        0,
        0,
        0,
        0,
        0,
        0,
        0,
        0,
        0,
        0,
        0,
        0,
        0,
        0,
        0,
        0,
        0,
        0,
        0,
        0,
        0,
        0,
        0,
        0,
        0,
        0,
        0,
        0,
        0,
        0,
        0,
        0,
        0,
        0,
        0,
        0,
        0,
        0,
        0,
        0,
        0,
        0,
        0,
        0,
        0,
        0,
        0,
        0,
        0,
        0,
        0,
        0,
        0,
        0,
        0,
        0,
        0,
        0,
        0,
        0,
        0,
        0,
        0,
        0,
        0,
        0,
        0,
        0,
        0,
        0,
        0,
        0,
        0,
        0,
        0,
        0,
        0,
        0,
        0,
        0,
        0,
        0,
        0,
        0,
        0,
        0,
        0,
        0,
        0,
        0,
        0,
        0,
        0,
        0,
        0,
        0,
        0,
        0,
        0,
        0,
        0,
        0,
        0,
        0,
        0,
        0,
        0,
        0,
        0,
        0,
        0,
        0,
        0,
        0,
        0,
        0,
        0,
        0,
        0,
        0,
        0,
        0,
        0,
        0,
        0,
        0,
        0,
        0,
        0,
        0,
        0,
        0,
        0,
        0,
        0,
        0,
        0,
        0,
        0,
        0,
        0,
        0,
        0,
        0,
        0,
        0,
        0,
        0,
        0,
        0,
        0,
        0,
        0,
        0,
        0,
        0,
        0,
        0,
        0,
        0,
        0,
        0,
        0,
        0,
        0,
        0,
        0,
        0,
        0,
        0,
        0,
        0,
        0,
        0,
        0,
        0,
        0,
        0,
        0,
        0,
        0,
        0,
        0,
        0,
        0,
        0,
        0,
        0,
        0,
        0,
        0,
        0,
        0,
        0,
        0,
        0,
        0,
        0,
        0,
        0,
        0,
        0,
        0,
        0,
        0,
        0,
        0,
        0,
        0,
        0,
        0,
        0,
        0,
        0,
        0,
        0,
        0,
        0,
        0,
        0,
        0,
        0,
        0,
        0,
        0,
        0,
        0,
        0,
        0,
        0,
        0,
        0,
        0,
        0,
        0,
        0,
        0,
        0,
        0,
        0,
        0,
        0,
        0,
        0,
        0,
        0,
        0,
        0,
        0,
        0,
        0,
        0,
        0,
        0,
        0,
        0,
        0,
        0,
        0,
        0,
        0,
        0,
        0,
        0,
        0,
        0,
        0,
        0,
        0,
        0,
        0,
        0,
        0,
        0,
        0,
        0,
        0,
        0,
        0,
        0,
        0,
        0,
        0,
        0,
        0,
        0,
        0,
        0,
        0,
        0,
        0,
        0,
        0,
        0,
        0,
        0,
        0,
        0,
        0,
        0,
        0,
        0,
        0,
        0,
        0,
        0,
        0,
        0,
        0,
        0,
        0,
        0,
        0,
        0,
        0,
        0,
        0,
        0,
        0,
        0,
        0,
        0,
        0,
        0,
        0,
        0,
        0,
        0,
        0,
        0,
        0,
        0,
        0,
        0,
        0,
        0,
        0,
        0,
        0,
        0,
        0,
        0,
        0,
        0,
        0,
        0,
        0,
        0,
        0,
        0,
        0,
        0,
        0,
        0,
        0,
        0,
        0,
        0,
        0,
        0,
        0,
        0,
        0,
        0,
        0,
        0,
        0,
        0,
        0,
        0,
        0,
        0,
        0,
        0,
        0,
        0,
        0,
        0,
        0,
        0,
        0,
        0,
        0,
        0,
        0,
        0,
        0,
        0,
        0,
        0,
        0,
        0,
        0,
        0,
        0,
        0,
        0,
        0,
        0,
        0,
        0,
        0,
        0,
        0,
        0,
        0,
        0,
        0,
        0,
        0,
        0;;
        Material Material {
           0.622011; 0.620919; 0.640000; 1.000000;;
           96.078431;
           0.500000; 0.500000; 0.500000;;
           0.000000; 0.000000; 0.000000;;
        }
      } // End of Cylinder material list
    } // End of Cylinder mesh
  } // End of Cylinder
} // End of Root
